{
  "type": "service_account",
  "project_id": "durable-melody-246220",
  "private_key_id": "bc55a473160fd5a5d2b06385927ea75ddc459e95",
  "private_key": "-----BEGIN PRIVATE KEY-----\nMIIEvAIBADANBgkqhkiG9w0BAQEFAASCBKYwggSiAgEAAoIBAQC/JqGIBvYMVIG6\nLbuEXJVxibjgzIJL4HJiyV9JDlK4qmaclSHT7TAduQ30BocpeA+V9l1eCOjzdshE\nXem4VLNycBeoFtdjSk/AzJvexOSe6ToTSBm0AVvEIevgchqwL8M2L4Zz+VzgaFx/\n8KyoWniMQeqqP6MFKfZ6XkWmcdDln56C5efhTCOuJ6fNE8cFw6lzDjGqNWrZ3A88\n5hpiPVBCK6Crb/QW9viFMnJx7P/kJ4pjBp6FZ2s/Q+gOV4U5jhGTYILmXn0aUnYd\ntIykWLiSTYqkjttiO52/nv2HvbYsIKiGEIpF+QvuiDQgwo5SDpDuNkQVuQMJiL0f\nhYu6XzeRAgMBAAECggEAAwHRkrlBT6pYrBwiEg/+zd1zyh2NgzIRupoeZKDUDlGn\n8ZirApF9q0oI/SjJIY7g9+P7Tgpn18Srm9+6WIsEk61NwfgyBT7bCFZvsU55pkJX\nBoyg0uMelXRPKKXC47isooKW4+YtXt5lbiHUJYXe1Z4H2gvMPb2OQhiPkfHCbopQ\nVztNd2m1uQSGrKqhvj6lEnnZSptURusdjbE9t5ol26DLnqU3U2ddC7eNoiOIw9M7\ncu870vfw8mL2beehYRzS8+fAY1RW7DTna4Kx/t4plaHnmlkM5KqGLRMvjp2HB5mK\nh74NXb146tcWdsS3HdXswDAGjjFvdvtw0RxV1R36kQKBgQDev6tgHNj/W7XtHei+\nQdUx4r0OyjUjXw7wrhlTrSoiSoHfErA8jfhfkUE0PfiWnunSXv22s16SWBsd3HI2\nEBABeVlkfCO09tHq/Kbrb1xEjxo5ciUaGJyibjGP0VUQTWWfsBFxf/GVCzvWAyRF\nQ3D3/ZlPkgZ9YdD/EUE38KX+1QKBgQDbr3P2lLtdQEGijRMYcGfO769M+SyBhWF8\ntlS+jWFH2LYcHiDPd3EzoB2aJsDJxV2uifLd1o/x5m/Zn2Hi90jo7+PJebEo11D2\nSvzeJkwLxr3PxL/bLnPQ9TejZTFdVYacQd0NZze4XLePESieVh3TA8m2of4XThqd\n40XUywMLzQKBgB5WgKLgivWMqiSXdEGlecIHnbRL+hzNL528OJra9OgiubmGNBar\nR27Mu9K/tgHdtv7+DRQ7LeBEu7y/b5bJbUSmIHS9K6fUDhcxPhLG4gw8aVf1ofQB\n8iN1Wq651hoYUIUFV/rbcC3aj9XAK8p7OwGrupvJybR+BBcZZIaX8iPZAoGAMB2j\nlnRI/Umfloyzi/zCn85bZM6Gcu/VxEzjDsFEd0n9yPbIVOhiQN5m3WZzfz3dIOdR\n7EicSm0gPlfsRpvGuk4gY/ZlWP6f2vHdpIJa0ZF77U+4fbcU4sVypDT7tOeQjhTW\n56Kdz6FvCsTFUril25vOyFN+pXgT2FT47HxydFkCgYA2FAG344dmZ1FKkt/QkgS5\nMVLVISkfyKvmjnqd01uR8EbKWceZkrJCyyGLZZhxj7NeRv3buXz+nlsllNO/lH7E\nRVpCVMnYsnzjJ4epqumQ8NeWZF8KoA6QkauU9mUdajbbMvMXY6uPRql+GDd1V/o5\nzBqv5/wx5JFupkrZPr7Z+A==\n-----END PRIVATE KEY-----\n",
  "client_email": "eva-tts@durable-melody-246220.iam.gserviceaccount.com",
  "client_id": "116544443292806655283",
  "auth_uri": "https://accounts.google.com/o/oauth2/auth",
  "token_uri": "https://oauth2.googleapis.com/token",
  "auth_provider_x509_cert_url": "https://www.googleapis.com/oauth2/v1/certs",
  "client_x509_cert_url": "https://www.googleapis.com/robot/v1/metadata/x509/eva-tts%40durable-melody-246220.iam.gserviceaccount.com"
}
